date,marketCap(EUR),price(EUR),generatedCoins,paymentCount
2017-10-03,6.36677587156758E10,3835.3602,2287.5,440833
2017-10-04,6.2389894690752E10,3757.8519,1675.0,366423
2017-10-05,6.11033071688203E10,3679.9956,1562.5,401676
2017-10-06,6.24752267411397E10,3762.2802,1987.5,457187
2017-10-07,6.31315986205772E10,3801.3345,1975.0,376557
2017-10-08,6.4010619230835E10,3853.8129,2275.0,370758
2017-10-09,6.66911274976865E10,4014.6324,2012.5,429684
2017-10-10,6.90361089735791E10,4155.3027,2000.0,462138
2017-10-11,6.92330504709785E10,4166.6475,1737.5,453823
2017-10-12,6.98233546892539E10,4201.7346,1912.5,426771
2017-10-13,7.90067667178272E10,4753.8192,1700.0,501228
2017-10-14,8.16086352248877E10,4909.8711,1762.5,448376
2017-10-15,8.44003181893086E10,5077.2852,2437.5,426984
2017-10-16,8.22662899715322E10,4948.1859,2175.0,484439
2017-10-17,8.30582894229131E10,4995.1746,2050.0,500846
2017-10-18,8.10754399784453E10,4875.3234,1887.5,497948
2017-10-19,8.07942639948242E10,4857.8538,2225.0,525157
2017-10-20,8.2604696086667E10,4966.0557,2237.5,500763
2017-10-21,8.67940272379482E10,5217.2073,1912.5,447156
2017-10-22,8.73809888744453E10,5251.8942,2275.0,433885
2017-10-23,8.69492185347988E10,5225.22,2137.5,477707
2017-10-24,8.59400011571074E10,5163.9024,2087.5,529691
2017-10-25,8.00001549395918E10,4806.402,2312.5,464949
2017-10-26,8.32460584197822E10,5000.7165,2250.0,416138
2017-10-27,8.54561392818154E10,5132.7738,1300.0,418157
2017-10-28,8.38415154880059E10,5035.4034,1062.5,327091
2017-10-29,8.33632269580244E10,5006.3628,1925.0,516737
2017-10-30,8.85947237930977E10,5319.9195,1837.5,496273
2017-10-31,8.88533070597949E10,5334.8574,1725.0,461286
2017-11-01,9.33395578261436E10,5603.6439,1950.0,554430
2017-11-02,9.82314013140752E10,5896.6599,1875.0,510736
2017-11-03,1.027329538353877E11,6166.1511,1487.5,516545
2017-11-04,1.038572942908301E11,6233.0976,1625.0,418542
2017-11-05,1.073476481173203E11,6441.9324,1762.5,425979
2017-11-06,1.073400150574385E11,6440.8014,1662.5,453874
2017-11-07,1.018389236788076E11,6110.097,1950.0,554073
2017-11-08,1.035660121644336E11,6213.0006,1800.0,481445
2017-11-09,1.080073982137363E11,6478.7421,1912.5,531408
2017-11-10,1.040584692500127E11,6241.1451,1500.0,463010
2017-11-11,9.60148348456065E10,5758.1907,1000.0,344731
2017-11-12,9.13323837940225E10,5477.0415,1000.0,355141
2017-11-13,8.61552448933272E10,5166.2775,1750.0,529275
2017-11-14,9.52074980040615E10,5708.4876,1600.0,476312
2017-11-15,9.62799179728193E10,5772.2412,1900.0,547969
2017-11-16,1.062829110977246E11,6371.2188,1900.0,516488
2017-11-17,1.139927648359815E11,6832.6059,2087.5,534530
2017-11-18,1.117296873042178E11,6696.5727,1700.0,468080
2017-11-19,1.127474001136357E11,6756.4461,2000.0,465574
2017-11-20,1.167255570685596E11,6993.9909,2187.5,574204
2017-11-21,1.191611731126289E11,7138.9938,2162.5,590709
2017-11-22,1.173207504363018E11,7027.8165,1850.0,515406
2017-11-23,1.195766938009863E11,7162.1706,1962.5,565864
2017-11-24,1.172902395778945E11,7024.3974,1862.5,544620
2017-11-25,1.197397319689199E11,7170.2877,1950.0,521448
2017-11-26,1.277066224061856E11,7646.4648,1912.5,537151
2017-11-27,1.35912311447E11,8136.8664,2125.0,625210
2017-11-28,1.427708331255508E11,8546.3841,1950.0,605525
2017-11-29,1.46479032057875E11,8767.338,2162.49999928,669272
2017-11-30,1.440176090018242E11,8618.9073,2087.5,644407
2017-12-01,1.482792368472617E11,8872.782,2287.5,659212
2017-12-02,1.596359470842266E11,9551.1211,2012.5,506753
2017-12-03,1.611746750286602E11,9641.9491,2200.0,554015
2017-12-04,1.645799747593242E11,9844.3981,2262.5,658211
2017-12-05,1.699885714123281E11,10166.5591,2225.0,678119
2017-12-06,1.734693037347656E11,10373.3581,2350.0,727780
2017-12-07,2.075815980145313E11,12411.5071,1900.0,633371
2017-12-08,2.59074319755957E11,15488.5231,1950.0,667114
2017-12-09,2.404813547183711E11,14375.2711,2175.0,632247
2017-12-10,2.207901128107656E11,13196.5081,2050.0,533121
2017-12-11,2.245876848251797E11,13421.8381,2137.5,663293
2017-12-12,2.463445139850664E11,14720.2261,1950.0,662530
2017-12-13,2.548233254542578E11,15225.0001,2325.0,709918
2017-12-14,2.386135998434941E11,14254.6021,2312.5,764683
2017-12-15,2.418039623006602E11,14443.1311,2112.49999921,698713
2017-12-16,2.587169129520781E11,15451.4611,2137.5,601778
2017-12-17,2.837429153778828E11,16943.9461,2312.5,643748
2017-12-18,2.784002580993203E11,16622.5681,2275.0,681423
2017-12-19,2.786107623539141E11,16632.9211,1750.0,643653
2017-12-20,2.588479649643164E11,15451.4611,1700.0,615360
2017-12-21,2.425793272405898E11,14478.8881,1650.0,632916
2017-12-22,2.317518424887656E11,13831.2601,1937.5,670389
2017-12-23,2.033606085513965E11,12135.3691,1737.5,570467
2017-12-24,2.129966090035703E11,12709.1341,1900.0,503880
2017-12-25,2.040929261694902E11,12176.4331,1687.5,457825
2017-12-26,2.047061366944512E11,12211.8421,1775.0,467480
2017-12-27,2.357493564844356E11,14062.2451,1950.0,568578
2017-12-28,2.31409986886252E11,13801.7671,1862.5,566517
2017-12-29,2.143920121728184E11,12785.3461,2062.5,644851
2017-12-30,2.142148054492871E11,12773.2531,1825.0,601269
2017-12-31,1.882032616728008E11,11220.9991,2037.5,515996
2018-01-01,2.059505749015918E11,12277.6141,1950.0,455903
2018-01-02,1.988635888275488E11,11853.7501,2137.5,648248
2018-01-03,2.186411819522676E11,13031.0341,1962.5,694576
2018-01-04,2.229378748346973E11,13285.5091,2100.0,808680
2018-01-05,2.259805080059336E11,13465.1641,1787.49999925,691280
2018-01-06,2.549890433892461E11,15192.0271,2100.0,698765
2018-01-07,2.559734586676016E11,15248.7511,2025.0,683244
2018-01-08,2.406520900895469E11,14334.2941,2075.0,701298
2018-01-09,2.209238160818984E11,13157.6191,2050.0,712901
2018-01-10,2.131330633121582E11,12691.9951,2075.0,680181
2018-01-11,2.18706750720627E11,13022.3341,2412.5,624669
2018-01-12,1.966078949092656E11,11704.8931,2225.0,575458
2018-01-13,2.039201952271035E11,12138.5881,1862.5,497578
2018-01-14,2.100587148127481E11,12502.5961,1937.5,449426
2018-01-15,2.012607117283672E11,11977.5511,1875.0,514589
2018-01-16,2.022901841538496E11,12037.4071,1987.5,572078
2018-01-17,1.671473626466758E11,9945.0571,2087.5,587740
2018-01-18,1.637701291996856E11,9742.9561,2162.5,581572
2018-01-19,1.671702404452012E11,9943.9261,2062.5,447880
2018-01-20,1.705015472461797E11,10140.8941,2225.0,436493
2018-01-21,1.885640466936582E11,11213.6041,2337.5,397634
2018-01-22,1.702107925207461E11,10120.7971,2087.5,440476
2018-01-23,1.601557648765156E11,9521.7151,2212.5,413562
2018-01-24,1.595741841552481E11,9485.9581,2200.0,433454
2018-01-25,1.671816722174238E11,9936.8791,1975.0,407265
2018-01-26,1.647760966471191E11,9792.7201,1937.5,388804
2018-01-27,1.636072193184727E11,9722.1631,1962.5,428955
2018-01-28,1.680258130937305E11,9983.5111,1975.0,380072
2018-01-29,1.721477224462422E11,10227.2851,1850.0,399726
2018-01-30,1.655949935476074E11,9836.9161,2087.5,394423
2018-01-31,1.480595814732578E11,8794.134,1462.5,361604
2018-02-01,1.499639978420957E11,8906.451,2000.0,442685
2018-02-02,1.339387627897832E11,7953.7836,2100.0,414774
2018-02-03,1.297041749342539E11,7701.3444,1975.0,332534
2018-02-04,1.344613601276875E11,7982.859,2225.0,300607
2018-02-05,1.212125205389121E11,7195.3698,2312.49999924,370126
2018-02-06,1.033645592506895E11,6135.0225,2125.0,456055
2018-02-07,1.136944269399463E11,6747.2763,1762.5,366311
2018-02-08,1.119812219283164E11,6644.9382,1637.5,296659
2018-02-09,1.212884377694082E11,7196.5008,1687.5,354485
2018-02-10,1.278736374624609E11,7586.4696,1787.5,313546
2018-02-11,1.263627904986602E11,7496.0331,1887.5,280973
2018-02-12,1.194143041936963E11,7083.0441,2075.0,325002
2018-02-13,1.309486701577148E11,7766.2464,2050.0,308786
2018-02-14,1.26170089590084E11,7481.9304,2237.5,332629
2018-02-15,1.392219235380996E11,8254.8384,1637.5,355904
2018-02-16,1.487353389016016E11,8818.059,1962.5,309500
2018-02-17,1.49806233683791E11,8880.525,1862.5,293702
2018-02-18,1.632666893454063E11,9677.3581,2025.0,283478
2018-02-19,1.549078402141523E11,9180.7621,2025.0,325452
2018-02-20,1.648961730176973E11,9771.6661,1762.5,336704
2018-02-21,1.669763136857383E11,9893.8141,2112.5,345916
2018-02-22,1.56544736008084E11,9274.5481,1862.5,395935
2018-02-23,1.459386456280332E11,8645.2509,1850.0,316131
2018-02-24,1.511036257984219E11,8950.299,1812.5,272646
2018-02-25,1.439038471887207E11,8522.8854,2137.5,275153
2018-02-26,1.42056575426916E11,8412.4041,1762.5,341349
2018-02-27,1.527164321970215E11,9042.693,2000.0,382900
2018-02-28,1.570436715730586E11,9297.8641,1937.49999927,372546
2018-03-01,1.526215570400215E11,9034.95,2062.5,403191
2018-03-02,1.613467930456035E11,9550.3381,1950.0,429514
2018-03-03,1.631958180592578E11,9658.6531,2250.0,342737
2018-03-04,1.690316522544434E11,10002.7381,1850.0,296156
2018-03-05,1.695652679962481E11,10033.1881,1862.5,342185
2018-03-06,1.691090804174277E11,10005.0871,1950.0,341783
2018-03-07,1.588888194769316E11,9399.3931,1962.5,368216
2018-03-08,1.463695037065547E11,8657.7528,2025.0,332688
2018-03-09,1.384909315494531E11,8190.7803,1825.0,384354
2018-03-10,1.375632475098086E11,8135.0133,1750.0,260548
2018-03-11,1.302531565743828E11,7701.9186,1912.5,259150
2018-03-12,1.41305955570002E11,8354.5491,2012.5,328797
2018-03-13,1.349964297856602E11,7980.5448,1975.0,320040
2018-03-14,1.35624763889584E11,8016.7455,1800.0,315241
2018-03-15,1.220395280109648E11,7212.9612,1800.0,352627
2018-03-16,1.225254923630684E11,7240.9317,1950.0,354309
2018-03-17,1.225251645192266E11,7240.0617,1862.5,266988
2018-03-18,1.161861612972832E11,6864.7524,1887.5,291065
2018-03-19,1.22879193106127E11,7259.3844,1937.5,316841
2018-03-20,1.269517975956484E11,7499.1129,1587.5,310955
2018-03-21,1.316448964450508E11,7775.6076,1900.0,314321
2018-03-22,1.316883713892891E11,7777.3128,1787.5,316385
2018-03-23,1.287086557275176E11,7600.5375,1662.49999856,327732
2018-03-24,1.311626809160078E11,7744.6965,1950.0,269616
2018-03-25,1.269173169759395E11,7493.1447,1687.5,238637
2018-03-26,1.252450140470938E11,7393.6689,1875.0,312810
2018-03-27,1.20859461229457E11,7134.0,1900.0,311228
2018-03-28,1.155196832750703E11,6818.0421,1687.5,295052
2018-03-29,1.176283107221475E11,6941.7909,1900.0,325846
2018-03-30,1.05734157522877E11,6239.1615,2025.0,357118
2018-03-31,1.016332658114404E11,5996.4576,1600.0,248517
2018-04-01,1.032735184412305E11,6092.6622,2025.0,242466
2018-04-02,1.009526049795498E11,5955.0282,1950.0,288495
2018-04-03,1.047609316973828E11,6178.9662,2037.5,328441
2018-04-04,1.09997894972166E11,6487.0767,1837.5,329626
2018-04-05,1.01043132642126E11,5958.3255,1950.0,297645
2018-04-06,1.005724914261065E11,5929.8852,1725.0,377430
2018-04-07,9.78459068454023E10,5768.5437,2250.0,246616
2018-04-08,1.021312107178496E11,6020.3826,2012.5,239498
2018-04-09,1.039787176719756E11,6128.5584,1837.5,288689
2018-04-10,1.003158467142998E11,5912.0328,2050.0,320440
2018-04-11,1.01029819331333E11,5953.8189,2012.5,295213
2018-04-12,1.027013881750547E11,6051.1806,1925.0,335325
2018-04-13,1.166787823047832E11,6873.9483,2062.5,389963
2018-04-14,1.163029877376035E11,6850.9629,1712.5,274869
2018-04-15,1.1815605378296E11,6959.4171,2037.5,306125
2018-04-16,1.231666408849824E11,7253.6859,1762.5,323438
2018-04-17,1.192508882926406E11,7022.3442,2025.0,349414
2018-04-18,1.173854069435361E11,6911.6541,2000.0,349333
2018-04-19,1.205737809565313E11,7098.5649,2225.0,385813
2018-04-20,1.224756458450352E11,7209.5856,1712.5,404046
2018-04-21,1.307935287501445E11,7698.4473,1987.5,332170
2018-04-22,1.319363638744883E11,7764.8022,2000.0,305619
2018-04-23,1.300201451273457E11,7651.1193,1912.5,379467
2018-04-24,1.321041343970078E11,7772.8758,1987.5,420483
2018-04-25,1.434571813353926E11,8439.8961,1537.5,367957
2018-04-26,1.311403590266055E11,7714.5684,1762.5,374399
2018-04-27,1.374151191096367E11,8082.8481,1775.0,398889
2018-04-28,1.322317369218672E11,7777.1649,1600.0,356818
2018-04-29,1.382673135411875E11,8131.3767,1975.0,331064
2018-04-30,1.394626179342988E11,8200.7157,1937.5,365142
2018-05-01,1.368940754664609E11,8048.7789,1975.0,382675
2018-05-02,1.347359792344727E11,7921.002,1750.0,355152
2018-05-03,1.36665468530168E11,8033.5539,1887.5,382920
2018-05-04,1.4351144661825E11,8435.085,1725.0,395233
2018-05-05,1.435974984996816E11,8439.2436,2012.5,347986
2018-05-06,1.457610112820996E11,8565.4197,1712.5,298239
2018-05-07,1.428202092589414E11,8391.7329,1875.0,341955
2018-05-08,1.389145770634551E11,8161.3569,1737.49999926,374324
2018-05-09,1.366016387595781E11,8024.6451,2000.0,348840
2018-05-10,1.381317714937246E11,8113.5852,1925.0,354923
2018-05-11,1.341036397340469E11,7876.0752,1587.5,405291
2018-05-12,1.250564325676602E11,7344.0528,2062.5,342910
2018-05-13,1.261687924687969E11,7408.4763,1850.0,277402
2018-05-14,1.291107490724414E11,7580.397,1650.0,360717
2018-05-15,1.29005953075707E11,7573.5153,1825.0,363050
2018-05-16,1.26043826948752E11,7398.8367,2237.5,345311
2018-05-17,1.240692377436895E11,7281.9435,1650.0,316167
2018-05-18,1.199568358625898E11,7039.8921,1850.0,391406
2018-05-19,1.223992582298965E11,7182.4851,1925.0,286108
2018-05-20,1.222836291323027E11,7174.8813,1800.0,281220
2018-05-21,1.263799524110742E11,7414.4271,1962.5,334313
2018-05-22,1.248745790140234E11,7325.2869,1887.5,327021
2018-05-23,1.19210812946501E11,6992.2596,2025.0,364663
2018-05-24,1.121645650333213E11,6578.1744,1787.5,337988
2018-05-25,1.126388196586406E11,6605.301,2200.0,364320
2018-05-26,1.110831863752344E11,6513.2376,2025.0,275434
2018-05-27,1.092501401853477E11,6405.0096,2049.9999993,259330
2018-05-28,1.094004565868115E11,6413.0397,1950.0,313132
2018-05-29,1.058233310478457E11,6202.6302,1737.5,335112
2018-05-30,1.108849263754277E11,6498.6651,2175.0,335898
2018-05-31,1.099554677028135E11,6443.3505,2125.0,343836
2018-06-01,1.113725940901006E11,6525.609,2075.0,447360
2018-06-02,1.119212051241475E11,6556.9464,1900.0,295695
2018-06-03,1.1335026217646E11,6639.9183,2037.5,285966
2018-06-04,1.147070225346162E11,6718.6011,2287.5,341314
2018-06-05,1.114300451598555E11,6525.783,2187.5,348466
2018-06-06,1.133026179137988E11,6634.5939,1837.49999923,346669
2018-06-07,1.136838432854883E11,6656.2134,1787.5,329925
2018-06-08,1.142057350464287E11,6686.0718,1806.25,378684
2018-06-09,1.134358650543691E11,6640.2924,1787.49999929,282421
2018-06-10,1.114714247543223E11,6524.6085,1587.5,307675
2018-06-11,1.010723463792461E11,5915.3823,1749.99999927,343971
2018-06-12,1.026661235809414E11,6008.0634,1812.5,340711
2018-06-13,9.80838787123066E10,5739.2856,1787.4999992,355490
2018-06-14,9.43152852426914E10,5518.1925,1912.49999924,335212
2018-06-15,9.92533618393565E10,5806.4496,1912.49999854,377094
2018-06-16,9.60126539713545E10,5616.2415,2075.0,264540
2018-06-17,9.73642115902822E10,5694.6111,1962.49999924,252845
2018-06-18,9.68479430639326E10,5663.7609,2050.0,322249
2018-06-19,1.003159607469404E11,5865.8793,1937.49999926,316994
2018-06-20,1.007494629573164E11,5890.5612,1937.49999921,325100
2018-06-21,1.008999646618213E11,5898.6783,2124.99999927,322510
2018-06-22,1.002839247019648E11,5861.9556,1887.5,373827
2018-06-23,9.06526280962168E10,5298.387,2000.0,288670
2018-06-24,9.17676891455283E10,5362.9236,2137.49999928,273997
2018-06-25,9.18937593567793E10,5369.6139,1962.5,315301
2018-06-26,9.31190044450947E10,5440.5885,1825.0,311474
2018-06-27,9.06098017126221E10,5293.428,1512.5,300383
2018-06-28,9.16419396510791E10,5353.2492,1962.5,300659
2018-06-29,8.7853853726957E10,5131.3731,1887.5,355271
2018-06-30,9.25722179332979E10,5406.3714,1762.49999926,277981
2018-07-01,9.55235109593936E10,5578.1616,1837.49999923,269207
2018-07-02,9.50673875239336E10,5550.9306,1762.5,336826
2018-07-03,9.83002128856523E10,5739.0942,1449.99999922,344382
2018-07-04,9.76261374387578E10,5699.2569,1674.99994556,336379
2018-07-05,9.83635295093594E10,5741.7477,1712.49999927,319874
2018-07-06,9.89543896367578E10,5775.6603,1999.99994622,432381
2018-07-07,9.94135278101543E10,5801.7777,1950.0,277763
2018-07-08,1.022437181719063E11,5966.286,1975.0,274916
2018-07-09,1.010223003040918E11,5894.3196,1699.99999921,322535
2018-07-10,1.004974864567354E11,5863.1127,1862.49994597,339389
2018-07-11,9.44168099280479E10,5507.7699,1687.5,313756
2018-07-12,9.54105972640547E10,5565.1986,1762.5,304588
2018-07-13,9.30077941123252E10,5424.4761,1787.5,371436
2018-07-14,9.3203524012918E10,5435.325,1662.5,277214
2018-07-15,9.35883414127871E10,5457.249,1662.5,265588
2018-07-16,9.4855636037333E10,5530.5987,1500.0,328693
2018-07-17,1.005738954529941E11,5863.4955,1987.5,369601
2018-07-18,1.09177031008627E11,6364.3284,2174.99999853,377654
2018-07-19,1.101293603527266E11,6419.034,2137.4999993,356263
2018-07-20,1.11474838606501E11,6496.638,1925.0,390930
2018-07-21,1.097751892250254E11,6396.8664,1712.5,298834
2018-07-22,1.107578655056113E11,6453.486,2275.0,280340
2018-07-23,1.107264067508789E11,6450.7977,2075.0,356168
2018-07-24,1.15247216534377E11,6713.3637,1987.49999924,406479
2018-07-25,1.251660464434609E11,7290.3042,2212.49999928,409243
2018-07-26,1.221523490547832E11,7113.8595,2062.5,371182
2018-07-27,1.187835468961592E11,6916.848,2087.49999847,418484
2018-07-28,1.22065470436707E11,7107.0822,1812.49999927,305235
2018-07-29,1.226276941172285E11,7139.0634,2124.99989145,301795
2018-07-30,1.228783178052122E11,7152.7746,1675.0,367965
2018-07-31,1.222868070283002E11,7117.644,1837.49999922,392240
2018-08-01,1.161386019335725E11,6759.0648,1874.99999844,377686
2018-08-02,1.141350585150013E11,6641.7453,1912.49999851,358896
2018-08-03,1.130703319762957E11,6579.0618,2075.0,436035
2018-08-04,1.112376351279509E11,6471.6429,2200.0,333559
2018-08-05,1.051562458926495E11,6117.0396,2000.0,297092
2018-08-06,1.056448527262175E11,6144.7578,1637.49999921,349815
2018-08-07,1.040899726722854E11,6053.7384,1887.5,365984
2018-08-08,1.009378099856687E11,5869.7595,1962.49999852,390751
2018-08-09,9.4346599785353E10,5485.8372,1862.5,360943
2018-08-10,9.83350461790033E10,5717.1354,2199.99999927,417084
2018-08-11,9.25762274901398E10,5381.6373,2125.0,308729
2018-08-12,9.40526133918317E10,5466.7755,1937.49999926,283875
2018-08-13,9.49270263602643E10,5516.9832,1874.99999924,355002
2018-08-14,9.41332153339735E10,5470.2642,1700.0,393307
2018-08-15,9.31509498656498E10,5412.6354,2012.49999922,417302
2018-08-16,9.42521151365552E10,5475.9801,1975.0,362609
2018-08-17,9.49618935601254E10,5516.5917,1900.0,399526
2018-08-18,9.8604849123232E10,5727.5841,2000.0,308597
2018-08-19,9.62068611213789E10,5587.6359,1812.49999844,316565
2018-08-20,9.73843872088128E10,5655.4437,1875.0,349379
2018-08-21,9.44068753040334E10,5481.9309,1849.99999932,340058
2018-08-22,9.71919005159878E10,5643.0375,1999.9999985,369529
2018-08-23,9.54811300349413E10,5543.0658,1862.49999927,338921
2018-08-24,9.81918012776482E10,5699.8224,1825.0,382945
2018-08-25,1.007270184579434E11,5846.3565,1687.5,319211
2018-08-26,1.012568964822376E11,5876.5368,2162.49999858,283228
2018-08-27,1.006122367351343E11,5838.396,2312.49999927,351392
2018-08-28,1.033288542564838E11,5995.2396,1912.5,368006
2018-08-29,1.063491893206379E11,6169.7877,1737.5,388150
2018-08-30,1.056407010192047E11,6128.0712,1924.99999924,347470
2018-08-31,1.046056786435819E11,6067.3539,1937.49999844,394845
2018-09-01,1.056800276929303E11,6128.9847,1887.5,338890
2018-09-02,1.078637363500889E11,6254.9346,1799.99999923,294192
2018-09-03,1.09216821235755E11,6332.7561,1799.99999924,341989
2018-09-04,1.089879705776607E11,6318.81,1575.0,354519
2018-09-05,1.104755940327742E11,6404.4702,1649.99999697,373480
2018-09-06,1.013858396657943E11,5876.9718,1874.99999921,379621
2018-09-07,9.80013248137942E10,5680.1604,1900.0,429552
2018-09-08,9.69800859343769E10,5620.3479,1875.0,317533
2018-09-09,9.34356394991502E10,5414.3406,2037.5,295698
2018-09-10,9.4620635244805E10,5482.3659,1687.5,342312
2018-09-11,9.50851179248008E10,5508.7356,1762.5,356798
2018-09-12,9.48713667379692E10,5495.7987,2099.99999931,346528
2018-09-13,9.54421329380975E10,5528.1888,1849.9999992,350225
2018-09-14,9.78733614494728E10,5668.4067,1650.0,367077
2018-09-15,9.77926722698206E10,5663.178,1750.0,326120
2018-09-16,9.82122505268402E10,5686.9116,1737.49999922,280923
2018-09-17,9.78823494221321E10,5667.2322,1687.5,362187
2018-09-18,9.43881382522607E10,5464.3917,1775.0,356406
2018-09-19,9.57645003369244E10,5543.5095,1950.0,355575
2018-09-20,9.61812062106283E10,5566.9995,1925.0,364640
2018-09-21,9.79209625131537E10,5667.0669,1799.99999927,436008
2018-09-22,1.012565322558656E11,5859.4935,1937.49999923,333446
2018-09-23,1.009711016320512E11,5842.3284,1875.0,298092
2018-09-24,1.008235691766626E11,5833.1499,1850.0,343175
2018-09-25,9.93133608842153E10,5745.1668,2112.5,364132
2018-09-26,9.70565395511959E10,5613.9273,1737.5,350095
2018-09-27,9.77055971283133E10,5650.9023,1787.5,355229
2018-09-28,1.004758772548069E11,5810.5125,1925.0,400405
2018-09-29,9.99505570161177E10,5779.497,1900.0,321741
2018-09-30,9.93839017765519E10,5746.0977,2037.5,308326
2018-10-01,9.96234609480249E10,5759.2695,1975.0,360525
2018-10-02,9.92344206751426E10,5736.1188,1712.5,359131
